The_output.vcd
$date
	Sat Jun 17 00:18:46 2023
$end
$version
	Icarus Verilog
$end
$timescale
	1s
$end
$scope module RegisterFileTB $end
$var wire 32 ! ReadData1 [31:0] $end
$upscope $end
$scope module RegisterFileTB $end
$var wire 32 " ReadData2 [31:0] $end
$upscope $end
$scope module RegisterFileTB $end
$var reg 32 # WriteData1 [31:0] $end
$upscope $end
$scope module RegisterFileTB $end
$var reg 32 $ WriteData2 [31:0] $end
$upscope $end
$scope module RegisterFileTB $end
$var reg 1 % RegWrite1 $end
$upscope $end
$scope module RegisterFileTB $end
$var reg 1 & RegWrite2 $end
$upscope $end
$scope module RegisterFileTB $end
$var reg 5 ' ReadRegister1 [4:0] $end
$upscope $end
$scope module RegisterFileTB $end
$var reg 5 ( ReadRegister2 [4:0] $end
$upscope $end
$scope module RegisterFileTB $end
$var reg 5 ) WriteRegister1 [4:0] $end
$upscope $end
$scope module RegisterFileTB $end
$var reg 5 * WriteRegister2 [4:0] $end
$upscope $end
$scope module RegisterFileTB $end
$var reg 1 + Clk $end
$upscope $end
$enddefinitions $end
#0
$dumpvars
0+
bx *
bx )
bx (
bx '
0&
0%
bx $
bx #
bx "
bx !
$end
#1
b0 "
b0 !
b1001 $
b10 #
b100 *
b11 )
b1 (
b0 '
1+
#2
0+
#3
1+
b100 $
b1000 #
b1 *
b0 )
b100 (
b11 '
#4
0+
1&
#5
1+
b1000 $
b0 *
b1 (
b0 '
1%
#6
0+
#7
1+
b1001 $
b10 #
b100 *
b11 )
b1 (
b0 '
#8
0+
0&
#9
1+
b100 $
b1000 #
b1 *
b0 )
b100 (
b11 '
#10
0+
0%
#11
b1000 !
1+
b1000 $
b0 *
b1 (
b0 '
#12
0+
1&
#13
1+
b1001 $
b10 #
b100 *
b11 )
b1 (
b0 '
#14
0+
#15
1+
b100 $
b1000 #
b1 *
b0 )
b100 (
b11 '
1%
#16
0+
0&
#17
1+
b1000 $
b0 *
b1 (
b0 '
#18
0+
#19
1+
b1001 $
b10 #
b100 *
b11 )
b1 (
b0 '
#20
0+
1&
0%
#21
1+
b100 $
b1000 #
b1 *
b0 )
b100 (
b11 '
#22
0+
#23
1+
b1000 $
b0 *
b1 (
b0 '
#24
0+
0&
#25
1+
b1001 $
b10 #
b100 *
b11 )
b1 (
b0 '
1%
#26
0+
#27
1+
b100 $
b1000 #
b1 *
b0 )
b100 (
b11 '
#28
0+
1&
#29
1+
b1000 $
b0 *
b1 (
b0 '
#30
0+
0%
#31
1+
b1001 $
b10 #
b100 *
b11 )
b1 (
b0 '
#32
0+
0&
#33
b1001 "
b10 !
1+
b100 $
b1000 #
b1 *
b0 )
b100 (
b11 '
#34
0+
#35
1+
b1000 $
b0 *
b1 (
b0 '
1%
#36
0+
1&
#37
1+
b1001 $
b10 #
b100 *
b11 )
b1 (
b0 '
#38
0+
#39
1+
b100 $
b1000 #
b1 *
b0 )
b100 (
b11 '
#40
0+
0&
0%
#41
b100 "
b1000 !
1+
b1000 $
b0 *
b1 (
b0 '
#42
0+
#43
1+
b1001 $
b10 #
b100 *
b11 )
b1 (
b0 '
#44
0+
1&
#45
1+
b100 $
b1000 #
b1 *
b0 )
b100 (
b11 '
1%
#46
0+
#47
1+
b1000 $
b0 *
b1 (
b0 '
#48
0+
0&
#49
1+
b1001 $
b10 #
b100 *
b11 )
b1 (
b0 '
#50
0+
0%
#51
b1001 "
b10 !
1+
b100 $
b1000 #
b1 *
b0 )
b100 (
b11 '
#52
0+
1&
#53
1+
b1000 $
b0 *
b1 (
b0 '
#54
0+
#55
1+
b1001 $
b10 #
b100 *
b11 )
b1 (
b0 '
1%
#56
0+
0&
#57
1+
b100 $
b1000 #
b1 *
b0 )
b100 (
b11 '
#58
0+
#59
1+
b1000 $
b0 *
b1 (
b0 '
#60
0+
1&
0%
#61
1+
b1001 $
b10 #
b100 *
b11 )
b1 (
b0 '
#62
0+
#63
1+
b100 $
b1000 #
b1 *
b0 )
b100 (
b11 '
#64
0+
0&
#65
1+
b1000 $
b0 *
b1 (
b0 '
1%
#66
0+
#67
1+
b1001 $
b10 #
b100 *
b11 )
b1 (
b0 '
#68
0+
1&
#69
1+
b100 $
b1000 #
b1 *
b0 )
b100 (
b11 '
#70
0+
0%
#71
1+
b1000 $
b0 *
b1 (
b0 '
#72
0+
0&
#73
b100 "
b1000 !
1+
b1001 $
b10 #
b100 *
b11 )
b1 (
b0 '
#74
0+
#75
1+
b100 $
b1000 #
b1 *
b0 )
b100 (
b11 '
1%
#76
0+
1&
#77
1+
b1000 $
b0 *
b1 (
b0 '
#78
0+
#79
1+
b1001 $
b10 #
b100 *
b11 )
b1 (
b0 '
#80
0+
0&
0%
#81
b1001 "
b10 !
1+
b100 $
b1000 #
b1 *
b0 )
b100 (
b11 '
#82
0+
#83
b100 "
b1000 !
1+
b1000 $
b0 *
b1 (
b0 '
#84
0+
1&
#85
1+
b1001 $
b10 #
b100 *
b11 )
b1 (
b0 '
1%
#86
0+
#87
1+
b100 $
b1000 #
b1 *
b0 )
b100 (
b11 '
#88
0+
0&
#89
1+
b1000 $
b0 *
b1 (
b0 '
#90
0+
0%
#91
1+
b1001 $
b10 #
b100 *
b11 )
b1 (
b0 '
#92
0+
1&
#93
1+
b100 $
b1000 #
b1 *
b0 )
b100 (
b11 '
#94
0+
#95
1+
b1000 $
b0 *
b1 (
b0 '
1%
#96
0+
0&
#97
1+
b1001 $
b10 #
b100 *
b11 )
b1 (
b0 '
#98
0+
#99
1+
b100 $
b1000 #
b1 *
b0 )
b100 (
b11 '
#100
0+
1&
0%
#101
b1000 $
b0 *
b1 (
b0 '
#103
b100 $
b100 #
b1 *
b1 )
b100 (
b1010 '
